%YAML 1.1
%TAG !u! tag:unity3d.com,2011:
--- !u!74 &7400000
AnimationClip:
  m_ObjectHideFlags: 0
  m_CorrespondingSourceObject: {fileID: 0}
  m_PrefabInternal: {fileID: 0}
  m_Name: RotateCoin
  serializedVersion: 6
  m_Legacy: 0
  m_Compressed: 0
  m_UseHighQualityCurve: 1
  m_RotationCurves: []
  m_CompressedRotationCurves: []
  m_EulerCurves: []
  m_PositionCurves: []
  m_ScaleCurves: []
  m_FloatCurves: []
  m_PPtrCurves:
  - curve:
    - time: 0
      value: {fileID: 21300000, guid: 6fdb6bbc7a0b2904cb3efc7ad8131918, type: 3}
    - time: 0.05
      value: {fileID: 21300000, guid: 341a41a2ff689f346bf590fe5e7b8d0f, type: 3}
    - time: 0.083333336
      value: {fileID: 21300000, guid: 2d1e96432f530324cabbb626a82a9891, type: 3}
    - time: 0.13333334
      value: {fileID: 21300000, guid: 9170f2fd2bd1bce47ad373fc45be58fc, type: 3}
    - time: 0.18333334
      value: {fileID: 21300000, guid: 4aec614413517d140b02c2f9002e8d7e, type: 3}
    - time: 0.21666667
      value: {fileID: 21300000, guid: ccd9a90f86102154c8133e9326b2c539, type: 3}
    - time: 0.26666668
      value: {fileID: 21300000, guid: eb7fd08c5742ba0458326079e5606308, type: 3}
    - time: 0.31666666
      value: {fileID: 21300000, guid: c98c3d1d5d414ab41af2ff523bf2f936, type: 3}
    - time: 0.35
      value: {fileID: 21300000, guid: 49c0f4adf97722840ac70b44c23bce98, type: 3}
    - time: 0.4
      value: {fileID: 21300000, guid: c6a01fb50b3c073409c639763ff7ccfd, type: 3}
    - time: 0.45
      value: {fileID: 21300000, guid: 27c9c1f106ceeec44a06fde3ed5bda9e, type: 3}
    - time: 0.48333332
      value: {fileID: 21300000, guid: 40f3912d15ff72142b1d93d54ed61fc5, type: 3}
    - time: 0.53333336
      value: {fileID: 21300000, guid: 287b28a32eec1ba43b4f8185d5be8149, type: 3}
    - time: 0.5833333
      value: {fileID: 21300000, guid: 2a8d2d69ce51c3948980a1663d0f14e2, type: 3}
    - time: 0.6166667
      value: {fileID: 21300000, guid: a2c4f8c7a119e714a85b7134ab2a6905, type: 3}
    - time: 0.6666667
      value: {fileID: 21300000, guid: 7f9d3da96d7ddbe45a3f09781ff5936f, type: 3}
    attribute: m_Sprite
    path: 
    classID: 212
    script: {fileID: 0}
  m_SampleRate: 60
  m_WrapMode: 0
  m_Bounds:
    m_Center: {x: 0, y: 0, z: 0}
    m_Extent: {x: 0, y: 0, z: 0}
  m_ClipBindingConstant:
    genericBindings:
    - serializedVersion: 2
      path: 0
      attribute: 0
      script: {fileID: 0}
      typeID: 212
      customType: 23
      isPPtrCurve: 1
    pptrCurveMapping:
    - {fileID: 21300000, guid: 6fdb6bbc7a0b2904cb3efc7ad8131918, type: 3}
    - {fileID: 21300000, guid: 341a41a2ff689f346bf590fe5e7b8d0f, type: 3}
    - {fileID: 21300000, guid: 2d1e96432f530324cabbb626a82a9891, type: 3}
    - {fileID: 21300000, guid: 9170f2fd2bd1bce47ad373fc45be58fc, type: 3}
    - {fileID: 21300000, guid: 4aec614413517d140b02c2f9002e8d7e, type: 3}
    - {fileID: 21300000, guid: ccd9a90f86102154c8133e9326b2c539, type: 3}
    - {fileID: 21300000, guid: eb7fd08c5742ba0458326079e5606308, type: 3}
    - {fileID: 21300000, guid: c98c3d1d5d414ab41af2ff523bf2f936, type: 3}
    - {fileID: 21300000, guid: 49c0f4adf97722840ac70b44c23bce98, type: 3}
    - {fileID: 21300000, guid: c6a01fb50b3c073409c639763ff7ccfd, type: 3}
    - {fileID: 21300000, guid: 27c9c1f106ceeec44a06fde3ed5bda9e, type: 3}
    - {fileID: 21300000, guid: 40f3912d15ff72142b1d93d54ed61fc5, type: 3}
    - {fileID: 21300000, guid: 287b28a32eec1ba43b4f8185d5be8149, type: 3}
    - {fileID: 21300000, guid: 2a8d2d69ce51c3948980a1663d0f14e2, type: 3}
    - {fileID: 21300000, guid: a2c4f8c7a119e714a85b7134ab2a6905, type: 3}
    - {fileID: 21300000, guid: 7f9d3da96d7ddbe45a3f09781ff5936f, type: 3}
  m_AnimationClipSettings:
    serializedVersion: 2
    m_AdditiveReferencePoseClip: {fileID: 0}
    m_AdditiveReferencePoseTime: 0
    m_StartTime: 0
    m_StopTime: 0.68333334
    m_OrientationOffsetY: 0
    m_Level: 0
    m_CycleOffset: 0
    m_HasAdditiveReferencePose: 0
    m_LoopTime: 1
    m_LoopBlend: 0
    m_LoopBlendOrientation: 0
    m_LoopBlendPositionY: 0
    m_LoopBlendPositionXZ: 0
    m_KeepOriginalOrientation: 0
    m_KeepOriginalPositionY: 1
    m_KeepOriginalPositionXZ: 0
    m_HeightFromFeet: 0
    m_Mirror: 0
  m_EditorCurves: []
  m_EulerEditorCurves: []
  m_HasGenericRootTransform: 0
  m_HasMotionFloatCurves: 0
  m_GenerateMotionCurves: 0
  m_Events: []
