%YAML 1.1
%TAG !u! tag:unity3d.com,2011:
--- !u!74 &7400000
AnimationClip:
  m_ObjectHideFlags: 0
  m_CorrespondingSourceObject: {fileID: 0}
  m_PrefabInternal: {fileID: 0}
  m_Name: AuraShield
  serializedVersion: 6
  m_Legacy: 0
  m_Compressed: 0
  m_UseHighQualityCurve: 1
  m_RotationCurves: []
  m_CompressedRotationCurves: []
  m_EulerCurves: []
  m_PositionCurves: []
  m_ScaleCurves: []
  m_FloatCurves: []
  m_PPtrCurves:
  - curve:
    - time: 0
      value: {fileID: 21300000, guid: dc86ef214de27ba4b91ba5426c198672, type: 3}
    - time: 0.1
      value: {fileID: 21300000, guid: 69f41350d168d9b43be5f31d4ffe4221, type: 3}
    - time: 0.16666667
      value: {fileID: 21300000, guid: 544b832d36c9aec49b098731d5040e8d, type: 3}
    - time: 0.25
      value: {fileID: 21300000, guid: 73927c58d8e57494381398a1221256ca, type: 3}
    - time: 0.3
      value: {fileID: 21300000, guid: 06b707ef53081064d99ada90eed2a41e, type: 3}
    - time: 0.36666667
      value: {fileID: 21300000, guid: cedc41d420a84ee4ebf067dfffa67f76, type: 3}
    - time: 0.46666667
      value: {fileID: 21300000, guid: 967c657392d689947a6c6776ed951469, type: 3}
    - time: 0.56666666
      value: {fileID: 21300000, guid: 7873747344c32ba4f85e233181a6cb20, type: 3}
    - time: 0.6166667
      value: {fileID: 21300000, guid: d8e96205af2b1944cad2ec10980e5267, type: 3}
    - time: 0.73333335
      value: {fileID: 21300000, guid: 73c6536af08af3c4283821a37c8a015d, type: 3}
    - time: 0.76666665
      value: {fileID: 21300000, guid: 8f5da661ecc591d40b703576f6f7d33c, type: 3}
    - time: 0.8833333
      value: {fileID: 21300000, guid: 73c6536af08af3c4283821a37c8a015d, type: 3}
    - time: 0.93333334
      value: {fileID: 21300000, guid: d8e96205af2b1944cad2ec10980e5267, type: 3}
    - time: 1.0333333
      value: {fileID: 21300000, guid: 7873747344c32ba4f85e233181a6cb20, type: 3}
    - time: 1.1333333
      value: {fileID: 21300000, guid: 967c657392d689947a6c6776ed951469, type: 3}
    - time: 1.2
      value: {fileID: 21300000, guid: cedc41d420a84ee4ebf067dfffa67f76, type: 3}
    - time: 1.25
      value: {fileID: 21300000, guid: 06b707ef53081064d99ada90eed2a41e, type: 3}
    - time: 1.3333334
      value: {fileID: 21300000, guid: 73927c58d8e57494381398a1221256ca, type: 3}
    - time: 1.4
      value: {fileID: 21300000, guid: 544b832d36c9aec49b098731d5040e8d, type: 3}
    - time: 1.5
      value: {fileID: 21300000, guid: 69f41350d168d9b43be5f31d4ffe4221, type: 3}
    attribute: m_Sprite
    path: 
    classID: 212
    script: {fileID: 0}
  m_SampleRate: 60
  m_WrapMode: 0
  m_Bounds:
    m_Center: {x: 0, y: 0, z: 0}
    m_Extent: {x: 0, y: 0, z: 0}
  m_ClipBindingConstant:
    genericBindings:
    - serializedVersion: 2
      path: 0
      attribute: 0
      script: {fileID: 0}
      typeID: 212
      customType: 23
      isPPtrCurve: 1
    pptrCurveMapping:
    - {fileID: 21300000, guid: dc86ef214de27ba4b91ba5426c198672, type: 3}
    - {fileID: 21300000, guid: 69f41350d168d9b43be5f31d4ffe4221, type: 3}
    - {fileID: 21300000, guid: 544b832d36c9aec49b098731d5040e8d, type: 3}
    - {fileID: 21300000, guid: 73927c58d8e57494381398a1221256ca, type: 3}
    - {fileID: 21300000, guid: 06b707ef53081064d99ada90eed2a41e, type: 3}
    - {fileID: 21300000, guid: cedc41d420a84ee4ebf067dfffa67f76, type: 3}
    - {fileID: 21300000, guid: 967c657392d689947a6c6776ed951469, type: 3}
    - {fileID: 21300000, guid: 7873747344c32ba4f85e233181a6cb20, type: 3}
    - {fileID: 21300000, guid: d8e96205af2b1944cad2ec10980e5267, type: 3}
    - {fileID: 21300000, guid: 73c6536af08af3c4283821a37c8a015d, type: 3}
    - {fileID: 21300000, guid: 8f5da661ecc591d40b703576f6f7d33c, type: 3}
    - {fileID: 21300000, guid: 73c6536af08af3c4283821a37c8a015d, type: 3}
    - {fileID: 21300000, guid: d8e96205af2b1944cad2ec10980e5267, type: 3}
    - {fileID: 21300000, guid: 7873747344c32ba4f85e233181a6cb20, type: 3}
    - {fileID: 21300000, guid: 967c657392d689947a6c6776ed951469, type: 3}
    - {fileID: 21300000, guid: cedc41d420a84ee4ebf067dfffa67f76, type: 3}
    - {fileID: 21300000, guid: 06b707ef53081064d99ada90eed2a41e, type: 3}
    - {fileID: 21300000, guid: 73927c58d8e57494381398a1221256ca, type: 3}
    - {fileID: 21300000, guid: 544b832d36c9aec49b098731d5040e8d, type: 3}
    - {fileID: 21300000, guid: 69f41350d168d9b43be5f31d4ffe4221, type: 3}
  m_AnimationClipSettings:
    serializedVersion: 2
    m_AdditiveReferencePoseClip: {fileID: 0}
    m_AdditiveReferencePoseTime: 0
    m_StartTime: 0
    m_StopTime: 1.5166667
    m_OrientationOffsetY: 0
    m_Level: 0
    m_CycleOffset: 0
    m_HasAdditiveReferencePose: 0
    m_LoopTime: 1
    m_LoopBlend: 0
    m_LoopBlendOrientation: 0
    m_LoopBlendPositionY: 0
    m_LoopBlendPositionXZ: 0
    m_KeepOriginalOrientation: 0
    m_KeepOriginalPositionY: 1
    m_KeepOriginalPositionXZ: 0
    m_HeightFromFeet: 0
    m_Mirror: 0
  m_EditorCurves: []
  m_EulerEditorCurves: []
  m_HasGenericRootTransform: 0
  m_HasMotionFloatCurves: 0
  m_GenerateMotionCurves: 0
  m_Events: []
